examples/sim.vcd
$date
	Fri Nov 27 20:35:35 2020
$end
$version
	Icarus Verilog
$end
$timescale
	1ps
$end
$scope module testbench $end
$var reg 1 ! clk $end
$var reg 1 " rst $end
$scope module dut $end
$var wire 1 ! clk $end
$var wire 1 " rst $end
$var wire 64 # writereg [63:0] $end
$var wire 1 $ stall $end
$var wire 6 % shamt [5:0] $end
$var wire 5 & rn [4:0] $end
$var wire 5 ' rm [4:0] $end
$var wire 64 ( res [63:0] $end
$var wire 64 ) readreg2 [63:0] $end
$var wire 64 * readreg1 [63:0] $end
$var wire 64 + readmem [63:0] $end
$var wire 4 , readflags [3:0] $end
$var wire 5 - rd [4:0] $end
$var wire 5 . rb [4:0] $end
$var wire 5 / ra [4:0] $end
$var wire 64 0 pc [63:0] $end
$var wire 11 1 opcode [10:0] $end
$var wire 1 2 nop $end
$var wire 64 3 movres [63:0] $end
$var wire 3 4 movop [2:0] $end
$var wire 64 5 memwb_res [63:0] $end
$var wire 64 6 memwb_readreg2 [63:0] $end
$var wire 64 7 memwb_readmem [63:0] $end
$var wire 4 8 memwb_readflags [3:0] $end
$var wire 5 9 memwb_rd [4:0] $end
$var wire 64 : memwb_pc [63:0] $end
$var wire 11 ; memwb_opcode [10:0] $end
$var wire 3 < memwb_control [2:0] $end
$var wire 32 = out [31:0] $end
$var wire 64 > data [63:0] $end
$var wire 1 ? ifid_nop $end
$var wire 32 @ ifid_instruction [31:0] $end
$var wire 6 A idex_shamt [5:0] $end
$var wire 64 B idex_readreg2 [63:0] $end
$var wire 64 C idex_readreg1 [63:0] $end
$var wire 5 D idex_rd [4:0] $end
$var wire 5 E idex_rb [4:0] $end
$var wire 5 F idex_ra [4:0] $end
$var wire 64 G idex_pc [63:0] $end
$var wire 11 H idex_opcode [10:0] $end
$var wire 1 I idex_nop $end
$var wire 3 J idex_movop [2:0] $end
$var wire 64 K idex_extended [63:0] $end
$var wire 9 L idex_control [8:0] $end
$var wire 6 M idex_aluop [5:0] $end
$var wire 64 N forwardedb [63:0] $end
$var wire 64 O forwardeda [63:0] $end
$var wire 2 P forwardb [1:0] $end
$var wire 2 Q forwarda [1:0] $end
$var wire 4 R flagstoset [3:0] $end
$var wire 64 S extended [63:0] $end
$var wire 64 T exmem_res [63:0] $end
$var wire 64 U exmem_readreg2 [63:0] $end
$var wire 5 V exmem_rd [4:0] $end
$var wire 64 W exmem_pc [63:0] $end
$var wire 11 X exmem_opcode [10:0] $end
$var wire 1 Y exmem_nop $end
$var wire 4 Z exmem_flagstoset [3:0] $end
$var wire 6 [ exmem_control [5:0] $end
$var wire 11 \ control [10:0] $end
$var wire 1 ] branch $end
$var wire 64 ^ alures [63:0] $end
$var wire 6 _ aluop [5:0] $end
$var wire 64 ` alub [63:0] $end
$var wire 64 a alua [63:0] $end
$var reg 3 b stage [2:0] $end
$scope module alu $end
$var wire 64 c a [63:0] $end
$var wire 64 d b [63:0] $end
$var wire 65 e usedb [64:0] $end
$var wire 65 f useda [64:0] $end
$var wire 1 g shift $end
$var wire 1 h shdir $end
$var wire 6 i shamt [5:0] $end
$var wire 64 j res [63:0] $end
$var wire 4 k flags [3:0] $end
$var wire 6 l aluop [5:0] $end
$upscope $end
$scope module branchcontrol $end
$var wire 1 m conditional $end
$var wire 1 n flagbased $end
$var wire 1 o zero $end
$var wire 1 p z $end
$var wire 1 q v $end
$var wire 1 r unconditional $end
$var wire 64 s readreg2 [63:0] $end
$var wire 5 t rd [4:0] $end
$var wire 11 u opcode [10:0] $end
$var wire 1 v n $end
$var wire 4 w flags [3:0] $end
$var wire 1 x c $end
$var reg 1 ] branch $end
$upscope $end
$scope module controlunit $end
$var wire 1 y op_branch $end
$var wire 1 z op_restoreg $end
$var wire 1 { op_ri $end
$var wire 11 | opcode [10:0] $end
$var wire 1 } setflags $end
$var wire 3 ~ ri_upper [2:0] $end
$var wire 3 !" ri_lower [2:0] $end
$var wire 1 "" op_stur $end
$var wire 1 #" op_shift $end
$var wire 1 $" op_r $end
$var wire 1 %" op_mov $end
$var wire 1 &" op_ldur $end
$var wire 1 '" op_i $end
$var wire 1 (" op_cb $end
$var wire 1 )" op_bflag $end
$var wire 1 *" op_b $end
$var wire 3 +" movop [2:0] $end
$var wire 11 ," control [10:0] $end
$var wire 6 -" aluop [5:0] $end
$upscope $end
$scope module exmem $end
$var wire 1 ! clk $end
$var wire 6 ." controlin [5:0] $end
$var wire 4 /" flagstosetin [3:0] $end
$var wire 1 2 nop $end
$var wire 64 0" readreg2in [63:0] $end
$var wire 64 1" resin [63:0] $end
$var wire 5 2" rdin [4:0] $end
$var wire 64 3" pcin [63:0] $end
$var wire 11 4" opcodein [10:0] $end
$var wire 1 I nopin $end
$var reg 6 5" controlout [5:0] $end
$var reg 4 6" flagstosetout [3:0] $end
$var reg 1 Y nopout $end
$var reg 11 7" opcodeout [10:0] $end
$var reg 64 8" pcout [63:0] $end
$var reg 5 9" rdout [4:0] $end
$var reg 64 :" readreg2out [63:0] $end
$var reg 64 ;" resout [63:0] $end
$upscope $end
$scope module flagsreg $end
$var wire 1 ! clk $end
$var wire 4 <" flagstoset [3:0] $end
$var wire 1 " reset $end
$var wire 1 =" setflags $end
$var reg 4 >" flags [3:0] $end
$upscope $end
$scope module forward $end
$var wire 11 ?" exmem_opcode [10:0] $end
$var wire 5 @" exmem_rd [4:0] $end
$var wire 1 A" exmem_regwrite $end
$var wire 1 B" forwarda_exmem $end
$var wire 1 C" forwarda_memwb $end
$var wire 1 D" forwardb_exmem $end
$var wire 1 E" forwardb_memwb $end
$var wire 1 F" memwb_regwrite $end
$var wire 3 G" stage [2:0] $end
$var wire 1 H" stage3 $end
$var wire 1 I" stage2 $end
$var wire 5 J" memwb_rd [4:0] $end
$var wire 11 K" memwb_opcode [10:0] $end
$var wire 1 L" memwb_branch $end
$var wire 5 M" idex_rb [4:0] $end
$var wire 5 N" idex_ra [4:0] $end
$var wire 2 O" forwardb [1:0] $end
$var wire 2 P" forwarda [1:0] $end
$var wire 1 Q" exmem_branch $end
$upscope $end
$scope module hazard $end
$var wire 11 R" exmem_opcode [10:0] $end
$var wire 1 S" idex_memread $end
$var wire 11 T" idex_opcode [10:0] $end
$var wire 11 U" opcode [10:0] $end
$var wire 5 V" rm [4:0] $end
$var wire 5 W" rn [4:0] $end
$var wire 5 X" rt [4:0] $end
$var wire 3 Y" stage [2:0] $end
$var wire 5 Z" idex_rd [4:0] $end
$var reg 1 $ stall $end
$upscope $end
$scope module idex $end
$var wire 6 [" aluopin [5:0] $end
$var wire 1 ! clk $end
$var wire 9 \" controlin [8:0] $end
$var wire 3 ]" movopin [2:0] $end
$var wire 1 2 nop $end
$var wire 11 ^" opcodein [10:0] $end
$var wire 5 _" rain [4:0] $end
$var wire 5 `" rbin [4:0] $end
$var wire 5 a" rdin [4:0] $end
$var wire 6 b" shamtin [5:0] $end
$var wire 64 c" readreg2in [63:0] $end
$var wire 64 d" readreg1in [63:0] $end
$var wire 64 e" pcin [63:0] $end
$var wire 1 ? nopin $end
$var wire 64 f" extendedin [63:0] $end
$var reg 6 g" aluopout [5:0] $end
$var reg 9 h" controlout [8:0] $end
$var reg 64 i" extendedout [63:0] $end
$var reg 3 j" movopout [2:0] $end
$var reg 1 I nopout $end
$var reg 11 k" opcodeout [10:0] $end
$var reg 64 l" pcout [63:0] $end
$var reg 5 m" raout [4:0] $end
$var reg 5 n" rbout [4:0] $end
$var reg 5 o" rdout [4:0] $end
$var reg 64 p" readreg1out [63:0] $end
$var reg 64 q" readreg2out [63:0] $end
$var reg 6 r" shamtout [5:0] $end
$upscope $end
$scope module ifid $end
$var wire 1 ! clk $end
$var wire 1 2 nopin $end
$var wire 1 $ stall $end
$var wire 64 s" pcin [63:0] $end
$var wire 32 t" instin [31:0] $end
$var reg 32 u" instout [31:0] $end
$var reg 1 ? nopout $end
$var reg 64 v" pcout [63:0] $end
$upscope $end
$scope module memdata $end
$var wire 64 w" addr [63:0] $end
$var wire 1 ! clk $end
$var wire 64 x" in [63:0] $end
$var wire 1 y" rden $end
$var wire 1 " reset $end
$var wire 1 z" wren $end
$var wire 64 {" outa [63:0] $end
$upscope $end
$scope module memprog $end
$var wire 64 |" pc [63:0] $end
$var wire 32 }" instruction [31:0] $end
$upscope $end
$scope module memwb $end
$var wire 1 ! clk $end
$var wire 3 ~" controlin [2:0] $end
$var wire 1 2 nop $end
$var wire 1 Y nopin $end
$var wire 11 !# opcodein [10:0] $end
$var wire 64 "# pcin [63:0] $end
$var wire 5 ## rdin [4:0] $end
$var wire 4 $# readflagsin [3:0] $end
$var wire 64 %# readmemin [63:0] $end
$var wire 64 &# readreg2in [63:0] $end
$var wire 64 '# resin [63:0] $end
$var reg 3 (# controlout [2:0] $end
$var reg 1 )# nopout $end
$var reg 11 *# opcodeout [10:0] $end
$var reg 64 +# pcout [63:0] $end
$var reg 5 ,# rdout [4:0] $end
$var reg 4 -# readflagsout [3:0] $end
$var reg 64 .# readmemout [63:0] $end
$var reg 64 /# readreg2out [63:0] $end
$var reg 64 0# resout [63:0] $end
$upscope $end
$scope module mov $end
$var wire 64 1# extended [63:0] $end
$var wire 3 2# movop [2:0] $end
$var wire 64 3# movres [63:0] $end
$var wire 64 4# readreg [63:0] $end
$var wire 1 5# movkeep $end
$upscope $end
$scope module programcounter $end
$var wire 1 6# branch $end
$var wire 64 7# branchpc [63:0] $end
$var wire 1 ! clk $end
$var wire 1 " rst $end
$var wire 1 $ stall $end
$var reg 64 8# pc [63:0] $end
$upscope $end
$scope module registerfile $end
$var wire 1 ! clk $end
$var wire 64 9# in [63:0] $end
$var wire 64 :# outm [63:0] $end
$var wire 64 ;# outn [63:0] $end
$var wire 5 <# rd [4:0] $end
$var wire 1 " reset $end
$var wire 5 =# rm [4:0] $end
$var wire 5 ># rn [4:0] $end
$var wire 1 ?# wren $end
$var integer 32 @# i [31:0] $end
$upscope $end
$scope module signextension $end
$var wire 32 A# instruction [31:0] $end
$var wire 26 B# short [25:0] $end
$var wire 11 C# opcode [10:0] $end
$var wire 64 D# mov_imm [63:0] $end
$var wire 64 E# long [63:0] $end
$var wire 64 F# dt_addr [63:0] $end
$var wire 64 G# cb_addr [63:0] $end
$var wire 64 H# b_addr [63:0] $end
$var wire 64 I# alu_imm [63:0] $end
$upscope $end
$upscope $end
$upscope $end
$enddefinitions $end
#0
$dumpvars
b0xxxxxxxxxxxx I#
bx00 H#
bx00 G#
bx F#
bx E#
b0xxxxxxxxxxxxxxxx D#
bx C#
bx B#
bx A#
b100000 @#
x?#
bx >#
bx =#
bx <#
bx ;#
bx :#
bx 9#
b0 8#
bx 7#
06#
x5#
bx 4#
bx 3#
bx 2#
bx 1#
bx 0#
bx /#
bx .#
bx -#
bx ,#
bx +#
bx *#
x)#
bx (#
bx '#
bx &#
bx %#
b0 $#
bx ##
bx "#
bx !#
bx ~"
b11010010100000000000000000000000 }"
b0 |"
bx {"
xz"
xy"
bx x"
bx w"
bx v"
bx u"
b11010010100000000000000000000000 t"
b0 s"
bx r"
bx q"
bx p"
bx o"
bx n"
bx m"
bx l"
bx k"
bx j"
bx i"
bx h"
b0xxxxx g"
bx f"
bx e"
bx d"
bx c"
bx b"
bx a"
bx `"
bx _"
bx ^"
bx ]"
bx \"
b0xxxxx ["
bx Z"
b0 Y"
bx X"
bx W"
bx V"
bx U"
bz T"
xS"
bz R"
xQ"
b0 P"
b0 O"
bx N"
bx M"
xL"
bx K"
bx J"
0I"
0H"
b0 G"
xF"
0E"
0D"
0C"
0B"
xA"
bx @"
bx ?"
b0 >"
x="
bx <"
bx ;"
bx :"
bx 9"
bx 8"
bx 7"
bx 6"
bx 5"
bx 4"
bx 3"
bx 2"
bx 1"
bx 0"
bx /"
bx ."
b0xxxxx -"
bx ,"
bx +"
x*"
x)"
x("
x'"
x&"
x%"
x$"
x#"
x""
bx !"
bx ~
x}
bx |
x{
xz
xy
xx
bx w
xv
bx u
bx t
bx s
xr
xq
xp
xo
xn
xm
b0xxxxx l
bx k
bx j
bx i
xh
xg
b0xxxxxxxxxxxxxxxxxxxxxxxxxxxxxxxxxxxxxxxxxxxxxxxxxxxxxxxxxxxxxxxx f
bx e
bx d
bx c
b0 b
bx a
bx `
b0xxxxx _
bx ^
x]
bx \
bx [
bx Z
xY
bx X
bx W
bx V
bx U
bx T
bx S
bx R
b0 Q
b0 P
bx O
bx N
b0xxxxx M
bx L
bx K
bx J
xI
bx H
bx G
bx F
bx E
bx D
bx C
bx B
bx A
bz @
x?
bx >
bz =
bx <
bx ;
bx :
bx 9
bx 8
bx 7
bx 6
bx 5
bx 4
bx 3
02
bx 1
b0 0
bx /
bx .
bx -
b0 ,
bx +
bx *
bx )
bx (
bx '
bx &
bx %
0$
bx #
1"
1!
$end
#1
0!
#2
b0 S
b0 f"
b0 E#
b0 *
b0 d"
b0 ;#
b0 /
b0 _"
b0 >#
0}
b100000100 \"
1z
0y
0{
b0 I#
b0 D#
b1111111111111111111111111111111111111111111100000000000000000000 G#
b0 F#
b0 )
b0 c"
b0 :#
b0 .
b0 `"
b0 =#
0*"
0("
0)"
b10 _
b10 -"
b10 ["
0#"
1%"
0&"
b1100000100 \
b1100000100 ,"
0""
0'"
0$"
b110 ~
b10 !"
b0 4
b0 +"
b0 ]"
0x
0q
0p
0v
b11010010100 C#
b1111111111111111111111111111111111111010000000000000000000000000 H#
b10100000000000000000000000 B#
b0 -
b0 X"
b0 a"
b0 &
b0 W"
b0 %
b0 b"
b0 '
b0 V"
b11010010100 1
b11010010100 |
b11010010100 U"
b11010010100 ^"
b0 8
b0 w
b0 -#
0?
b11010010100000000000000000000000 @
b11010010100000000000000000000000 u"
b11010010100000000000000000000000 A#
b0 >
b0 e"
b0 v"
b11110010101000000000000000000000 =
b11110010101000000000000000000000 t"
b11110010101000000000000000000000 }"
b100 0
b100 s"
b100 |"
b100 8#
b1 b
b1 G"
b1 Y"
1!
0"
#3
0!
#4
b0 ^
b0 j
b100 R
b100 k
b100 /"
b0 (
b0 1"
b0 f
b0 3
b0 3#
b100000000000 I#
b1111111111111111111111111111111111111111111101000000000000000000 G#
b111 ~
b101 4
b101 +"
b101 ]"
b0 a
b0 c
b0 e
b11110010101 C#
b1111111111111111111111111111111111111010100000000000000000000000 H#
b10101000000000000000000000 B#
b11110010101 1
b11110010101 |
b11110010101 U"
b11110010101 ^"
b0 `
b0 d
b0 N
b0 0"
b0 4#
b0 O
05#
0h
0g
0S"
b100 ."
b11110010101000000000000000000000 @
b11110010101000000000000000000000 u"
b11110010101000000000000000000000 A#
b100 >
b100 e"
b100 v"
b0 D
b0 2"
b0 Z"
b0 o"
b0 E
b0 M"
b0 n"
b0 F
b0 N"
b0 m"
b0 A
b0 i
b0 r"
b0 K
b0 i"
b0 1#
b0 B
b0 q"
b0 C
b0 p"
b0 G
b0 3"
b0 l"
b0 J
b0 j"
b0 2#
b10 M
b10 l
b10 g"
b11010010100 H
b11010010100 4"
b11010010100 k"
0I
b100000100 L
b100000100 h"
b11110010110000000000000000000000 =
b11110010110000000000000000000000 t"
b11110010110000000000000000000000 }"
b1000 0
b1000 s"
b1000 |"
b1000 8#
b10 b
b10 G"
b10 Y"
1!
#5
0!
#6
b0 (
b0 1"
b0 3
b0 3#
b0 I#
b1111111111111111111111111111111111111111111110000000000000000000 G#
b11 !"
b110 4
b110 +"
b110 ]"
b0 +
b0 {"
b0 %#
0Q"
0="
0z"
0y"
1A"
b100 ~"
15#
b11110010110 C#
b1111111111111111111111111111111111111011000000000000000000000000 H#
b10110000000000000000000000 B#
b11110010110 1
b11110010110 |
b11110010110 U"
b11110010110 ^"
b0 V
b0 9"
b0 @"
b0 ##
b100 Z
b100 6"
b100 <"
b0 U
b0 :"
b0 x"
b0 &#
b0 T
b0 ;"
b0 w"
b0 '#
b0 W
b0 8"
b0 "#
b11010010100 X
b11010010100 7"
b11010010100 ?"
b11010010100 !#
0Y
b100 [
b100 5"
b100 G
b100 3"
b100 l"
b101 J
b101 j"
b101 2#
b11110010101 H
b11110010101 4"
b11110010101 k"
b11110010110000000000000000000000 @
b11110010110000000000000000000000 u"
b11110010110000000000000000000000 A#
b1000 >
b1000 e"
b1000 v"
b11110010111000000000000000000000 =
b11110010111000000000000000000000 t"
b11110010111000000000000000000000 }"
b1100 0
b1100 s"
b1100 |"
b1100 8#
b0 ^
b0 j
b100 R
b100 k
b100 /"
b0 e
b0 f
b0 `
b0 d
b0 a
b0 c
b0 N
b0 0"
b0 4#
b0 O
b11 P
b11 O"
1D"
b11 Q
b11 P"
1B"
1I"
b11 b
b11 G"
b11 Y"
1!
#7
0!
#8
0]
b100000000000 I#
b1111111111111111111111111111111111111111111111000000000000000000 G#
b111 4
b111 +"
b111 ]"
b0 #
b0 9#
0n
0m
b11110010111 C#
b1111111111111111111111111111111111111011100000000000000000000000 H#
b10111000000000000000000000 B#
b11110010111 1
b11110010111 |
b11110010111 U"
b11110010111 ^"
b0 <#
1o
0L"
0r
1?#
1F"
b11110010111000000000000000000000 @
b11110010111000000000000000000000 u"
b11110010111000000000000000000000 A#
b1100 >
b1100 e"
b1100 v"
b1000 G
b1000 3"
b1000 l"
b110 J
b110 j"
b110 2#
b11110010110 H
b11110010110 4"
b11110010110 k"
b100 W
b100 8"
b100 "#
b11110010101 X
b11110010101 7"
b11110010101 ?"
b11110010101 !#
b0 9
b0 t
b0 J"
b0 ,#
b0 6
b0 s
b0 /#
b0 5
b0 0#
b0 7#
b0 7
b0 .#
b0 :
b0 +#
b11010010100 ;
b11010010100 u
b11010010100 K"
b11010010100 *#
b100 <
b100 (#
b11111000010000000000110000000000 =
b11111000010000000000110000000000 t"
b11111000010000000000110000000000 }"
b10000 0
b10000 s"
b10000 |"
b10000 8#
1E"
1C"
02
06#
1H"
b100 b
b100 G"
b100 Y"
1!
#9
0!
#10
b0 S
b0 f"
b0 E#
0z
b1010101 \"
b11 I#
b1100000 D#
b10000000000110000000 G#
0%"
b1001010101 \
b1001010101 ,"
1&"
b1 !"
b110 4
b110 +"
b110 ]"
b11111000010 C#
b1000000000011000000000000 H#
b10000000000110000000000 B#
b11 %
b11 b"
b11111000010 1
b11111000010 |
b11111000010 U"
b11111000010 ^"
b100 :
b100 +#
b11110010101 ;
b11110010101 u
b11110010101 K"
b11110010101 *#
b1000 W
b1000 8"
b1000 "#
b11110010110 X
b11110010110 7"
b11110010110 ?"
b11110010110 !#
b1100 G
b1100 3"
b1100 l"
b111 J
b111 j"
b111 2#
b11110010111 H
b11110010111 4"
b11110010111 k"
b11111000010000000000110000000000 @
b11111000010000000000110000000000 u"
b11111000010000000000110000000000 A#
b10000 >
b10000 e"
b10000 v"
b11010010100000000000000100000001 =
b11010010100000000000000100000001 t"
b11010010100000000000000100000001 }"
b10100 0
b10100 s"
b10100 |"
b10100 8#
b101 b
b101 G"
b101 Y"
1!
#11
0!
#12
b1000 S
b1000 f"
b1000 E#
1z
b100000100 \"
b0 I#
b1000 D#
b1111111111111111111111111111111111111111111100000000000000100000 G#
b1 .
b1 `"
b1 =#
b1000 /
b1000 _"
b1000 >#
1%"
b1100000100 \
b1100000100 ,"
0&"
b110 ~
b10 !"
b0 4
b0 +"
b0 ]"
b11010010100 C#
b1111111111111111111111111111111111111010000000000000010000000100 H#
b10100000000000000100000001 B#
b1 -
b1 X"
b1 a"
b1000 &
b1000 W"
b0 %
b0 b"
b11010010100 1
b11010010100 |
b11010010100 U"
b11010010100 ^"
1S"
b10101 ."
b11010010100000000000000100000001 @
b11010010100000000000000100000001 u"
b11010010100000000000000100000001 A#
b10100 >
b10100 e"
b10100 v"
b11 A
b11 i
b11 r"
b10000 G
b10000 3"
b10000 l"
b110 J
b110 j"
b110 2#
b11111000010 H
b11111000010 4"
b11111000010 k"
b1010101 L
b1010101 h"
b1100 W
b1100 8"
b1100 "#
b11110010111 X
b11110010111 7"
b11110010111 ?"
b11110010111 !#
b1000 :
b1000 +#
b11110010110 ;
b11110010110 u
b11110010110 K"
b11110010110 *#
b11110010101000000000000000000001 =
b11110010101000000000000000000001 t"
b11110010101000000000000000000001 }"
b11000 0
b11000 s"
b11000 |"
b11000 8#
b110 b
b110 G"
b110 Y"
1!
#13
0!
#14
b0 S
b0 f"
b0 E#
b1 +
b1 {"
b1 %#
b1000 (
b1000 1"
b100000000000 I#
b0 D#
b1111111111111111111111111111111111111111111101000000000000000000 G#
b0 /
b0 _"
b0 >#
b111 ~
b101 4
b101 +"
b101 ]"
1y"
b101 ~"
0E"
b0 P
b0 O"
0D"
0C"
b0 Q
b0 P"
0B"
b1000 3
b1000 3#
05#
0S"
b100 ."
b11110010101 C#
b1111111111111111111111111111111111111010100000000000000000000100 H#
b10101000000000000000000001 B#
b0 &
b0 W"
b11110010101 1
b11110010101 |
b11110010101 U"
b11110010101 ^"
b1100 :
b1100 +#
b11110010111 ;
b11110010111 u
b11110010111 K"
b11110010111 *#
b10000 W
b10000 8"
b10000 "#
b11111000010 X
b11111000010 7"
b11111000010 ?"
b11111000010 !#
b10101 [
b10101 5"
b1 D
b1 2"
b1 Z"
b1 o"
b1 E
b1 M"
b1 n"
b1000 F
b1000 N"
b1000 m"
b0 A
b0 i
b0 r"
b1000 K
b1000 i"
b1000 1#
b10100 G
b10100 3"
b10100 l"
b0 J
b0 j"
b0 2#
b11010010100 H
b11010010100 4"
b11010010100 k"
b100000100 L
b100000100 h"
b11110010101000000000000000000001 @
b11110010101000000000000000000001 u"
b11110010101000000000000000000001 A#
b11000 >
b11000 e"
b11000 v"
b11110010110000000000000000000001 =
b11110010110000000000000000000001 t"
b11110010110000000000000000000001 }"
b11100 0
b11100 s"
b11100 |"
b11100 8#
b111 b
b111 G"
b111 Y"
1!
#15
0!
#16
b0 R
b0 k
b0 /"
b1001 ^
b1001 j
b1 f
b1000 e
b1 a
b1 c
b1000 `
b1000 d
b1 O
b1000 N
b1000 0"
b1000 4#
b1 #
b1 9#
b0 I#
b1111111111111111111111111111111111111111111110000000000000000000 G#
b11 !"
b110 4
b110 +"
b110 ]"
b10 Q
b10 P"
b1000 (
b1000 1"
b11110010110 C#
b1111111111111111111111111111111111111011000000000000000000000100 H#
b10110000000000000000000001 B#
b11110010110 1
b11110010110 |
b11110010110 U"
b11110010110 ^"
1C"
b1000 3
b1000 3#
15#
b11 P
b11 O"
1D"
b0 +
b0 {"
b0 %#
0y"
b100 ~"
b11110010110000000000000000000001 @
b11110010110000000000000000000001 u"
b11110010110000000000000000000001 A#
b11100 >
b11100 e"
b11100 v"
b0 F
b0 N"
b0 m"
b0 K
b0 i"
b0 1#
b11000 G
b11000 3"
b11000 l"
b101 J
b101 j"
b101 2#
b11110010101 H
b11110010101 4"
b11110010101 k"
b1 V
b1 9"
b1 @"
b1 ##
b1000 T
b1000 ;"
b1000 w"
b1000 '#
b10100 W
b10100 8"
b10100 "#
b11010010100 X
b11010010100 7"
b11010010100 ?"
b11010010100 !#
b100 [
b100 5"
b1 7
b1 .#
b10000 :
b10000 +#
b11111000010 ;
b11111000010 u
b11111000010 K"
b11111000010 *#
b101 <
b101 (#
b11110010111000000000000000000001 =
b11110010111000000000000000000001 t"
b11110010111000000000000000000001 }"
b100000 0
b100000 s"
b100000 |"
b100000 8#
1!
#17
0!
#18
b1000 ^
b1000 j
b0 f
b0 a
b0 c
b0 O
b0 Q
b0 P"
b1000 #
b1000 9#
b100000000000 I#
b1111111111111111111111111111111111111111111111000000000000000000 G#
b111 4
b111 +"
b111 ]"
1E"
0C"
b1 <#
b11110010111 C#
b1111111111111111111111111111111111111011100000000000000000000100 H#
b10111000000000000000000001 B#
b11110010111 1
b11110010111 |
b11110010111 U"
b11110010111 ^"
b1 9
b1 t
b1 J"
b1 ,#
b1000 5
b1000 0#
b1000 7#
b0 7
b0 .#
b10100 :
b10100 +#
b11010010100 ;
b11010010100 u
b11010010100 K"
b11010010100 *#
b100 <
b100 (#
b0 Z
b0 6"
b0 <"
b1000 U
b1000 :"
b1000 x"
b1000 &#
b11000 W
b11000 8"
b11000 "#
b11110010101 X
b11110010101 7"
b11110010101 ?"
b11110010101 !#
b11100 G
b11100 3"
b11100 l"
b110 J
b110 j"
b110 2#
b11110010110 H
b11110010110 4"
b11110010110 k"
b11110010111000000000000000000001 @
b11110010111000000000000000000001 u"
b11110010111000000000000000000001 A#
b100000 >
b100000 e"
b100000 v"
b1 *
b1 d"
b1 ;#
b11111000010000000000110000100001 =
b11111000010000000000110000100001 t"
b11111000010000000000110000100001 }"
b100100 0
b100100 s"
b100100 |"
b100100 8#
1!
#19
0!
#20
b0 S
b0 f"
b0 E#
b1 .
b1 `"
b1 =#
b1001 ^
b1001 j
0z
b1010101 \"
b1 f
b11 I#
b1100001 D#
b10000000000110000100 G#
b1000 *
b1000 d"
b1000 ;#
b1 /
b1 _"
b1 >#
0%"
b1001010101 \
b1001010101 ,"
1&"
b1 !"
b110 4
b110 +"
b110 ]"
b1 a
b1 c
b11111000010 C#
b1000000000011000010000100 H#
b10000000000110000100001 B#
b1 &
b1 W"
b11 %
b11 b"
b11111000010 1
b11111000010 |
b11111000010 U"
b11111000010 ^"
b1 O
0o
b11111000010000000000110000100001 @
b11111000010000000000110000100001 u"
b11111000010000000000110000100001 A#
b100100 >
b100100 e"
b100100 v"
b1 C
b1 p"
b100000 G
b100000 3"
b100000 l"
b111 J
b111 j"
b111 2#
b11110010111 H
b11110010111 4"
b11110010111 k"
b11100 W
b11100 8"
b11100 "#
b11110010110 X
b11110010110 7"
b11110010110 ?"
b11110010110 !#
b1000 6
b1000 s
b1000 /#
b11000 :
b11000 +#
b11110010101 ;
b11110010101 u
b11110010101 K"
b11110010101 *#
b10001011000000010000000000000000 =
b10001011000000010000000000000000 t"
b10001011000000010000000000000000 }"
b101000 0
b101000 s"
b101000 |"
b101000 8#
b1000 )
b1000 c"
b1000 :#
1!
#21
0!
#22
1$
b1000000 S
b1000000 f"
b1000000 E#
b1000 ^
b1000 j
b0 \"
1z
b10 _
b10 -"
b10 ["
b1000 f
b0 e
1{
b1000 a
b1000 c
b0 `
b0 d
b1000 (
b1000 1"
b1000000 I#
b100000000000 D#
b10000000000000 G#
b10000 F#
b1000 )
b1000 c"
b1000 :#
b1 .
b1 `"
b1 =#
b1 *
b1 d"
b1 ;#
b0 /
b0 _"
b0 >#
b100 \
b100 ,"
0&"
1$"
b100 ~
b100 !"
b0 4
b0 +"
b0 ]"
1C"
b11 Q
b11 P"
1B"
b1000 O
1S"
b10101 ."
b10001011000 C#
b1111111111111111111111111111111111111100000001000000000000000000 H#
b11000000010000000000000000 B#
b0 -
b0 X"
b0 a"
b0 &
b0 W"
b0 %
b0 b"
b1 '
b1 V"
b10001011000 1
b10001011000 |
b10001011000 U"
b10001011000 ^"
b11100 :
b11100 +#
b11110010110 ;
b11110010110 u
b11110010110 K"
b11110010110 *#
b100000 W
b100000 8"
b100000 "#
b11110010111 X
b11110010111 7"
b11110010111 ?"
b11110010111 !#
b1 F
b1 N"
b1 m"
b11 A
b11 i
b11 r"
b1000 B
b1000 q"
b1000 C
b1000 p"
b100100 G
b100100 3"
b100100 l"
b110 J
b110 j"
b110 2#
b11111000010 H
b11111000010 4"
b11111000010 k"
b1010101 L
b1010101 h"
b10001011000000010000000000000000 @
b10001011000000010000000000000000 u"
b10001011000000010000000000000000 A#
b101000 >
b101000 e"
b101000 v"
bx =
bx t"
bx }"
b101100 0
b101100 s"
b101100 |"
b101100 8#
1!
#23
0!
#24
b100 \"
0$
b1 f
b1 a
b1 c
b1001 (
b1001 1"
b1 O
b1001 ^
b1001 j
b1000 e
b10 +
b10 {"
b10 %#
0C"
b0 Q
b0 P"
0B"
b1000000 3
b1000000 3#
b1000 `
b1000 d
05#
0S"
b0 ."
1y"
b101 ~"
b0 D
b0 2"
b0 Z"
b0 o"
b0 F
b0 N"
b0 m"
b0 A
b0 i
b0 r"
b1000000 K
b1000000 i"
b1000000 1#
b1 C
b1 p"
b101000 G
b101000 3"
b101000 l"
b0 J
b0 j"
b0 2#
b10001011000 H
b10001011000 4"
b10001011000 k"
b0 L
b0 h"
b100100 W
b100100 8"
b100100 "#
b11111000010 X
b11111000010 7"
b11111000010 ?"
b11111000010 !#
b10101 [
b10101 5"
b100000 :
b100000 +#
b11110010111 ;
b11110010111 u
b11110010111 K"
b11110010111 *#
1!
#25
0!
